…
<!-------------------------- Start your work below ---------------------------->

``` r
fourchoices <- lapply(list(cancer_sample, parking_meters, vancouver_trees, flow_sample), glimpse)
```

``` r
head(fourchoices)
```

    ## [[1]]
    ## # A tibble: 569 × 32
    ##          ID diagnosis radius_m…¹ textu…² perim…³ area_…⁴ smoot…⁵ compa…⁶ conca…⁷
    ##       <dbl> <chr>          <dbl>   <dbl>   <dbl>   <dbl>   <dbl>   <dbl>   <dbl>
    ##  1   842302 M               18.0    10.4   123.    1001   0.118   0.278   0.300 
    ##  2   842517 M               20.6    17.8   133.    1326   0.0847  0.0786  0.0869
    ##  3 84300903 M               19.7    21.2   130     1203   0.110   0.160   0.197 
    ##  4 84348301 M               11.4    20.4    77.6    386.  0.142   0.284   0.241 
    ##  5 84358402 M               20.3    14.3   135.    1297   0.100   0.133   0.198 
    ##  6   843786 M               12.4    15.7    82.6    477.  0.128   0.17    0.158 
    ##  7   844359 M               18.2    20.0   120.    1040   0.0946  0.109   0.113 
    ##  8 84458202 M               13.7    20.8    90.2    578.  0.119   0.164   0.0937
    ##  9   844981 M               13      21.8    87.5    520.  0.127   0.193   0.186 
    ## 10 84501001 M               12.5    24.0    84.0    476.  0.119   0.240   0.227 
    ## # … with 559 more rows, 23 more variables: concave_points_mean <dbl>,
    ## #   symmetry_mean <dbl>, fractal_dimension_mean <dbl>, radius_se <dbl>,
    ## #   texture_se <dbl>, perimeter_se <dbl>, area_se <dbl>, smoothness_se <dbl>,
    ## #   compactness_se <dbl>, concavity_se <dbl>, concave_points_se <dbl>,
    ## #   symmetry_se <dbl>, fractal_dimension_se <dbl>, radius_worst <dbl>,
    ## #   texture_worst <dbl>, perimeter_worst <dbl>, area_worst <dbl>,
    ## #   smoothness_worst <dbl>, compactness_worst <dbl>, concavity_worst <dbl>, …
    ## 
    ## [[2]]
    ## # A tibble: 10,032 × 22
    ##    meter_head  r_mf_9a…¹ r_mf_…² r_sa_…³ r_sa_…⁴ r_su_…⁵ r_su_…⁶ rate_…⁷ time_…⁸
    ##    <chr>       <chr>     <chr>   <chr>   <chr>   <chr>   <chr>   <chr>   <chr>  
    ##  1 Twin        $2.00     $4.00   $2.00   $4.00   $2.00   $4.00   <NA>    METER …
    ##  2 Pay Station $1.00     $1.00   $1.00   $1.00   $1.00   $1.00   $ .50   METER …
    ##  3 Twin        $1.00     $1.00   $1.00   $1.00   $1.00   $1.00   <NA>    METER …
    ##  4 Single      $1.00     $1.00   $1.00   $1.00   $1.00   $1.00   <NA>    METER …
    ##  5 Twin        $2.00     $1.00   $2.00   $1.00   $2.00   $1.00   <NA>    METER …
    ##  6 Twin        $2.00     $1.00   $2.00   $1.00   $2.00   $1.00   <NA>    METER …
    ##  7 Twin        $2.00     $3.00   $2.00   $3.00   $2.00   $3.00   <NA>    METER …
    ##  8 Single      $2.00     $3.00   $2.00   $3.00   $2.00   $3.00   <NA>    METER …
    ##  9 Twin        $4.00     $1.00   $4.00   $1.00   $4.00   $1.00   <NA>    METER …
    ## 10 Twin        $2.00     $1.00   $2.00   $1.00   $2.00   $1.00   <NA>    METER …
    ## # … with 10,022 more rows, 13 more variables: t_mf_9a_6p <chr>,
    ## #   t_mf_6p_10 <chr>, t_sa_9a_6p <chr>, t_sa_6p_10 <chr>, t_su_9a_6p <chr>,
    ## #   t_su_6p_10 <chr>, time_misc <chr>, credit_card <chr>, pay_phone <chr>,
    ## #   longitude <dbl>, latitude <dbl>, geo_local_area <chr>, meter_id <chr>, and
    ## #   abbreviated variable names ¹​r_mf_9a_6p, ²​r_mf_6p_10, ³​r_sa_9a_6p,
    ## #   ⁴​r_sa_6p_10, ⁵​r_su_9a_6p, ⁶​r_su_6p_10, ⁷​rate_misc, ⁸​time_in_effect
    ## 
    ## [[3]]
    ## # A tibble: 146,611 × 20
    ##    tree_id civic_number std_st…¹ genus…² speci…³ culti…⁴ commo…⁵ assig…⁶ root_…⁷
    ##      <dbl>        <dbl> <chr>    <chr>   <chr>   <chr>   <chr>   <chr>   <chr>  
    ##  1  149556          494 W 58TH … ULMUS   AMERIC… BRANDON BRANDO… N       N      
    ##  2  149563          450 W 58TH … ZELKOVA SERRATA <NA>    JAPANE… N       N      
    ##  3  149579         4994 WINDSOR… STYRAX  JAPONI… <NA>    JAPANE… N       N      
    ##  4  149590          858 E 39TH … FRAXIN… AMERIC… AUTUMN… AUTUMN… Y       N      
    ##  5  149604         5032 WINDSOR… ACER    CAMPES… <NA>    HEDGE … N       N      
    ##  6  149616          585 W 61ST … PYRUS   CALLER… CHANTI… CHANTI… N       N      
    ##  7  149617         4909 SHERBRO… ACER    PLATAN… COLUMN… COLUMN… N       N      
    ##  8  149618         4925 SHERBRO… ACER    PLATAN… COLUMN… COLUMN… N       N      
    ##  9  149619         4969 SHERBRO… ACER    PLATAN… COLUMN… COLUMN… N       N      
    ## 10  149625          720 E 39TH … FRAXIN… AMERIC… AUTUMN… AUTUMN… N       N      
    ## # … with 146,601 more rows, 11 more variables: plant_area <chr>,
    ## #   on_street_block <dbl>, on_street <chr>, neighbourhood_name <chr>,
    ## #   street_side_name <chr>, height_range_id <dbl>, diameter <dbl>, curb <chr>,
    ## #   date_planted <date>, longitude <dbl>, latitude <dbl>, and abbreviated
    ## #   variable names ¹​std_street, ²​genus_name, ³​species_name, ⁴​cultivar_name,
    ## #   ⁵​common_name, ⁶​assigned, ⁷​root_barrier
    ## 
    ## [[4]]
    ## # A tibble: 218 × 7
    ##    station_id  year extreme_type month   day  flow sym  
    ##    <chr>      <dbl> <chr>        <dbl> <dbl> <dbl> <chr>
    ##  1 05BB001     1909 maximum          7     7   314 <NA> 
    ##  2 05BB001     1910 maximum          6    12   230 <NA> 
    ##  3 05BB001     1911 maximum          6    14   264 <NA> 
    ##  4 05BB001     1912 maximum          8    25   174 <NA> 
    ##  5 05BB001     1913 maximum          6    11   232 <NA> 
    ##  6 05BB001     1914 maximum          6    18   214 <NA> 
    ##  7 05BB001     1915 maximum          6    27   236 <NA> 
    ##  8 05BB001     1916 maximum          6    20   309 <NA> 
    ##  9 05BB001     1917 maximum          6    17   174 <NA> 
    ## 10 05BB001     1918 maximum          6    15   345 <NA> 
    ## # … with 208 more rows
…
<!-------------------------- Start your work below ---------------------------->

> I would choose **“vancouver_trees”** as my final choice. Below you can
> see an initial domenstration of relation between neighborhood and mean
> of tree diameters.

``` r
neigh_dia <- vancouver_trees %>% 
  group_by(neighbourhood_name) %>% 
  summarise(mean(diameter))
colnames(neigh_dia) <- c("neighborhood", "mdiameter")
arrange(neigh_dia, desc(mdiameter))
```

    ## # A tibble: 22 × 2
    ##    neighborhood             mdiameter
    ##    <chr>                        <dbl>
    ##  1 KITSILANO                     14.4
    ##  2 SHAUGHNESSY                   14.3
    ##  3 DUNBAR-SOUTHLANDS             13.9
    ##  4 WEST POINT GREY               13.2
    ##  5 KERRISDALE                    12.7
    ##  6 WEST END                      12.1
    ##  7 ARBUTUS-RIDGE                 11.9
    ##  8 RILEY PARK                    11.8
    ##  9 SOUTH CAMBIE                  11.7
    ## 10 KENSINGTON-CEDAR COTTAGE      11.7
    ## # … with 12 more rows
…
# Question 1

**Which neighborhood has tallest trees in avarage?**

``` r
#summarizing
tall_tree <- vancouver_trees %>%
  group_by(neighbourhood_name) %>%
  summarise(hgt_avg = mean(height_range_id)) %>%
  arrange(desc(hgt_avg))
print(tall_tree)
```

    ## # A tibble: 22 × 2
    ##    neighbourhood_name hgt_avg
    ##    <chr>                <dbl>
    ##  1 KITSILANO             3.26
    ##  2 SHAUGHNESSY           3.24
    ##  3 WEST POINT GREY       3.03
    ##  4 DUNBAR-SOUTHLANDS     3.03
    ##  5 WEST END              2.88
    ##  6 KERRISDALE            2.81
    ##  7 FAIRVIEW              2.80
    ##  8 ARBUTUS-RIDGE         2.72
    ##  9 MOUNT PLEASANT        2.65
    ## 10 GRANDVIEW-WOODLAND    2.60
    ## # … with 12 more rows
…
# Question 2

**Is there a relationship between genus and height?**

``` r
#summarizing
dia_hgt <- vancouver_trees %>%
  summarise(genus_name, height_range_id) %>%
  group_by(genus_name) %>%
  summarise(mean_hgt = mean(height_range_id)) %>%
  arrange(desc(mean_hgt))
  print(dia_hgt)
```

    ## # A tibble: 97 × 2
    ##    genus_name          mean_hgt
    ##    <chr>                  <dbl>
    ##  1 ULMUS                   5.18
    ##  2 CUPRESSOCYPARIS   X     5   
    ##  3 PSEUDOTSUGA             4.92
    ##  4 POPULUS                 4.88
    ##  5 PLATANUS                4.63
    ##  6 AESCULUS                4.60
    ##  7 BETULA                  4.48
    ##  8 CATALPA                 4.34
    ##  9 TSUGA                   4.25
    ## 10 PTELEA                  4   
    ## # … with 87 more rows

``` r
#Create a categorical variable with 3 or more groups from an existing numerical variable.
dia_hgt <- dia_hgt %>%
  mutate(tall = mean_hgt > 3, medium = between(mean_hgt,1.5,3), short = between(mean_hgt,0,1.5))

print(dia_hgt)
```

    ## # A tibble: 97 × 5
    ##    genus_name          mean_hgt tall  medium short
    ##    <chr>                  <dbl> <lgl> <lgl>  <lgl>
    ##  1 ULMUS                   5.18 TRUE  FALSE  FALSE
    ##  2 CUPRESSOCYPARIS   X     5    TRUE  FALSE  FALSE
    ##  3 PSEUDOTSUGA             4.92 TRUE  FALSE  FALSE
    ##  4 POPULUS                 4.88 TRUE  FALSE  FALSE
    ##  5 PLATANUS                4.63 TRUE  FALSE  FALSE
    ##  6 AESCULUS                4.60 TRUE  FALSE  FALSE
    ##  7 BETULA                  4.48 TRUE  FALSE  FALSE
    ##  8 CATALPA                 4.34 TRUE  FALSE  FALSE
    ##  9 TSUGA                   4.25 TRUE  FALSE  FALSE
    ## 10 PTELEA                  4    TRUE  FALSE  FALSE
    ## # … with 87 more rows
…
